"t" 	"aorta" 	"myo" 	
         0 	         0 	        44 	
2.0687260000000264881 	         3 	        46 	
4.2194220000000086657 	        16 	        51 	
6.4513249999999970896 	        89 	        51 	
8.6735840000000052896 	       240 	        51 	
10.917358999999976277 	       348 	        59 	
13.058563999999989846 	       413 	        72 	
15.14108299999998053 	       345 	        78 	
17.209319999999991069 	       226 	        84 	
19.271698000000014872 	       127 	        91 	
21.342162999999970907 	        72 	        91 	
23.378295999999977539 	        42 	        84 	